^C:\COLLEGE\4TH YEAR\MULTI-PLAYER DISTRIBUTED PROGRAMMING(C++)\CA3\MULTIPLAYERCA3\ROBOCAT\SRC\ROBOCATPCH.CPP
/c /I"C:\COLLEGE\4TH YEAR\MULTI-PLAYER DISTRIBUTED PROGRAMMING(C++)\SFML-2.3.2-WINDOWS-VC14-32-BIT\SFML-2.3.2\INCLUDE" /I"C:\USERS\BRANDON\DESKTOP\LAST\NEW FOLDER\SFML-2.3.2\INCLUDE" /I..\SDL\INCLUDE /IINC /I..\ /I"C:\SFML-2.3.2\INCLUDE" /ZI /nologo /W4 /WX- /diagnostics:classic /Od /Oi /Oy- /D WIN32 /D _DEBUG /D DEBUG /D PROFILE /D _WINDOWS /D _WIN32_WINNT=0x0600 /D _MBCS /Gm- /EHsc /RTC1 /MDd /GS /arch:SSE2 /fp:fast /Zc:wchar_t /Zc:forScope /Zc:inline /openmp- /Yc"RoboCatPCH.h" /Fp"DEBUG\ROBOCAT.PCH" /Fo"DEBUG\\" /Fd"DEBUG\ROBOCAT.PDB" /Gd /TP /analyze-   C:\COLLEGE\4TH YEAR\MULTI-PLAYER DISTRIBUTED PROGRAMMING(C++)\CA3\MULTIPLAYERCA3\ROBOCAT\SRC\ROBOCATPCH.CPP
^C:\COLLEGE\4TH YEAR\MULTI-PLAYER DISTRIBUTED PROGRAMMING(C++)\CA3\MULTIPLAYERCA3\ROBOCAT\SRC\ACKRANGE.CPP
/c /I"C:\COLLEGE\4TH YEAR\MULTI-PLAYER DISTRIBUTED PROGRAMMING(C++)\SFML-2.3.2-WINDOWS-VC14-32-BIT\SFML-2.3.2\INCLUDE" /I"C:\USERS\BRANDON\DESKTOP\LAST\NEW FOLDER\SFML-2.3.2\INCLUDE" /I..\SDL\INCLUDE /IINC /I..\ /I"C:\SFML-2.3.2\INCLUDE" /ZI /nologo /W4 /WX- /diagnostics:classic /Od /Oi /Oy- /D WIN32 /D _DEBUG /D DEBUG /D PROFILE /D _WINDOWS /D _WIN32_WINNT=0x0600 /D _MBCS /Gm- /EHsc /RTC1 /MDd /GS /arch:SSE2 /fp:fast /Zc:wchar_t /Zc:forScope /Zc:inline /openmp- /Yu"RoboCatPCH.h" /Fp"DEBUG\ROBOCAT.PCH" /Fo"DEBUG\\" /Fd"DEBUG\ROBOCAT.PDB" /Gd /TP /analyze-   C:\COLLEGE\4TH YEAR\MULTI-PLAYER DISTRIBUTED PROGRAMMING(C++)\CA3\MULTIPLAYERCA3\ROBOCAT\SRC\ACKRANGE.CPP
^C:\COLLEGE\4TH YEAR\MULTI-PLAYER DISTRIBUTED PROGRAMMING(C++)\CA3\MULTIPLAYERCA3\ROBOCAT\SRC\CONNECTIONDETAILS.CPP
/c /I"C:\COLLEGE\4TH YEAR\MULTI-PLAYER DISTRIBUTED PROGRAMMING(C++)\SFML-2.3.2-WINDOWS-VC14-32-BIT\SFML-2.3.2\INCLUDE" /I"C:\USERS\BRANDON\DESKTOP\LAST\NEW FOLDER\SFML-2.3.2\INCLUDE" /I..\SDL\INCLUDE /IINC /I..\ /I"C:\SFML-2.3.2\INCLUDE" /ZI /nologo /W4 /WX- /diagnostics:classic /Od /Oi /Oy- /D WIN32 /D _DEBUG /D DEBUG /D PROFILE /D _WINDOWS /D _WIN32_WINNT=0x0600 /D _MBCS /Gm- /EHsc /RTC1 /MDd /GS /arch:SSE2 /fp:fast /Zc:wchar_t /Zc:forScope /Zc:inline /openmp- /Yu"RoboCatPCH.h" /Fp"DEBUG\ROBOCAT.PCH" /Fo"DEBUG\\" /Fd"DEBUG\ROBOCAT.PDB" /Gd /TP /analyze-   C:\COLLEGE\4TH YEAR\MULTI-PLAYER DISTRIBUTED PROGRAMMING(C++)\CA3\MULTIPLAYERCA3\ROBOCAT\SRC\CONNECTIONDETAILS.CPP
^C:\COLLEGE\4TH YEAR\MULTI-PLAYER DISTRIBUTED PROGRAMMING(C++)\CA3\MULTIPLAYERCA3\ROBOCAT\SRC\LINE.CPP
/c /I"C:\COLLEGE\4TH YEAR\MULTI-PLAYER DISTRIBUTED PROGRAMMING(C++)\SFML-2.3.2-WINDOWS-VC14-32-BIT\SFML-2.3.2\INCLUDE" /I"C:\USERS\BRANDON\DESKTOP\LAST\NEW FOLDER\SFML-2.3.2\INCLUDE" /I..\SDL\INCLUDE /IINC /I..\ /I"C:\SFML-2.3.2\INCLUDE" /ZI /nologo /W4 /WX- /diagnostics:classic /Od /Oi /Oy- /D WIN32 /D _DEBUG /D DEBUG /D PROFILE /D _WINDOWS /D _WIN32_WINNT=0x0600 /D _MBCS /Gm- /EHsc /RTC1 /MDd /GS /arch:SSE2 /fp:fast /Zc:wchar_t /Zc:forScope /Zc:inline /openmp- /Yu"RoboCatPCH.h" /Fp"DEBUG\ROBOCAT.PCH" /Fo"DEBUG\\" /Fd"DEBUG\ROBOCAT.PDB" /Gd /TP /analyze-   C:\COLLEGE\4TH YEAR\MULTI-PLAYER DISTRIBUTED PROGRAMMING(C++)\CA3\MULTIPLAYERCA3\ROBOCAT\SRC\LINE.CPP
^C:\COLLEGE\4TH YEAR\MULTI-PLAYER DISTRIBUTED PROGRAMMING(C++)\CA3\MULTIPLAYERCA3\ROBOCAT\SRC\SHADOWFACTORY.CPP
/c /I"C:\COLLEGE\4TH YEAR\MULTI-PLAYER DISTRIBUTED PROGRAMMING(C++)\SFML-2.3.2-WINDOWS-VC14-32-BIT\SFML-2.3.2\INCLUDE" /I"C:\USERS\BRANDON\DESKTOP\LAST\NEW FOLDER\SFML-2.3.2\INCLUDE" /I..\SDL\INCLUDE /IINC /I..\ /I"C:\SFML-2.3.2\INCLUDE" /ZI /nologo /W4 /WX- /diagnostics:classic /Od /Oi /Oy- /D WIN32 /D _DEBUG /D DEBUG /D PROFILE /D _WINDOWS /D _WIN32_WINNT=0x0600 /D _MBCS /Gm- /EHsc /RTC1 /MDd /GS /arch:SSE2 /fp:fast /Zc:wchar_t /Zc:forScope /Zc:inline /openmp- /Yu"RoboCatPCH.h" /Fp"DEBUG\ROBOCAT.PCH" /Fo"DEBUG\\" /Fd"DEBUG\ROBOCAT.PDB" /Gd /TP /analyze-   C:\COLLEGE\4TH YEAR\MULTI-PLAYER DISTRIBUTED PROGRAMMING(C++)\CA3\MULTIPLAYERCA3\ROBOCAT\SRC\SHADOWFACTORY.CPP
^C:\COLLEGE\4TH YEAR\MULTI-PLAYER DISTRIBUTED PROGRAMMING(C++)\CA3\MULTIPLAYERCA3\ROBOCAT\SRC\SOUNDMANAGER.CPP
/c /I"C:\COLLEGE\4TH YEAR\MULTI-PLAYER DISTRIBUTED PROGRAMMING(C++)\SFML-2.3.2-WINDOWS-VC14-32-BIT\SFML-2.3.2\INCLUDE" /I"C:\USERS\BRANDON\DESKTOP\LAST\NEW FOLDER\SFML-2.3.2\INCLUDE" /I..\SDL\INCLUDE /IINC /I..\ /I"C:\SFML-2.3.2\INCLUDE" /ZI /nologo /W4 /WX- /diagnostics:classic /Od /Oi /Oy- /D WIN32 /D _DEBUG /D DEBUG /D PROFILE /D _WINDOWS /D _WIN32_WINNT=0x0600 /D _MBCS /Gm- /EHsc /RTC1 /MDd /GS /arch:SSE2 /fp:fast /Zc:wchar_t /Zc:forScope /Zc:inline /openmp- /Yu"RoboCatPCH.h" /Fp"DEBUG\ROBOCAT.PCH" /Fo"DEBUG\\" /Fd"DEBUG\ROBOCAT.PDB" /Gd /TP /analyze-   C:\COLLEGE\4TH YEAR\MULTI-PLAYER DISTRIBUTED PROGRAMMING(C++)\CA3\MULTIPLAYERCA3\ROBOCAT\SRC\SOUNDMANAGER.CPP
^C:\COLLEGE\4TH YEAR\MULTI-PLAYER DISTRIBUTED PROGRAMMING(C++)\CA3\MULTIPLAYERCA3\ROBOCAT\SRC\TRIGONOMETRY.CPP
/c /I"C:\COLLEGE\4TH YEAR\MULTI-PLAYER DISTRIBUTED PROGRAMMING(C++)\SFML-2.3.2-WINDOWS-VC14-32-BIT\SFML-2.3.2\INCLUDE" /I"C:\USERS\BRANDON\DESKTOP\LAST\NEW FOLDER\SFML-2.3.2\INCLUDE" /I..\SDL\INCLUDE /IINC /I..\ /I"C:\SFML-2.3.2\INCLUDE" /ZI /nologo /W4 /WX- /diagnostics:classic /Od /Oi /Oy- /D WIN32 /D _DEBUG /D DEBUG /D PROFILE /D _WINDOWS /D _WIN32_WINNT=0x0600 /D _MBCS /Gm- /EHsc /RTC1 /MDd /GS /arch:SSE2 /fp:fast /Zc:wchar_t /Zc:forScope /Zc:inline /openmp- /Yu"RoboCatPCH.h" /Fp"DEBUG\ROBOCAT.PCH" /Fo"DEBUG\\" /Fd"DEBUG\ROBOCAT.PDB" /Gd /TP /analyze-   C:\COLLEGE\4TH YEAR\MULTI-PLAYER DISTRIBUTED PROGRAMMING(C++)\CA3\MULTIPLAYERCA3\ROBOCAT\SRC\TRIGONOMETRY.CPP
^C:\COLLEGE\4TH YEAR\MULTI-PLAYER DISTRIBUTED PROGRAMMING(C++)\CA3\MULTIPLAYERCA3\ROBOCAT\SRC\YARN.CPP
/c /I"C:\COLLEGE\4TH YEAR\MULTI-PLAYER DISTRIBUTED PROGRAMMING(C++)\SFML-2.3.2-WINDOWS-VC14-32-BIT\SFML-2.3.2\INCLUDE" /I"C:\USERS\BRANDON\DESKTOP\LAST\NEW FOLDER\SFML-2.3.2\INCLUDE" /I..\SDL\INCLUDE /IINC /I..\ /I"C:\SFML-2.3.2\INCLUDE" /ZI /nologo /W4 /WX- /diagnostics:classic /Od /Oi /Oy- /D WIN32 /D _DEBUG /D DEBUG /D PROFILE /D _WINDOWS /D _WIN32_WINNT=0x0600 /D _MBCS /Gm- /EHsc /RTC1 /MDd /GS /arch:SSE2 /fp:fast /Zc:wchar_t /Zc:forScope /Zc:inline /openmp- /Yu"RoboCatPCH.h" /Fp"DEBUG\ROBOCAT.PCH" /Fo"DEBUG\\" /Fd"DEBUG\ROBOCAT.PDB" /Gd /TP /analyze-   C:\COLLEGE\4TH YEAR\MULTI-PLAYER DISTRIBUTED PROGRAMMING(C++)\CA3\MULTIPLAYERCA3\ROBOCAT\SRC\YARN.CPP
^C:\COLLEGE\4TH YEAR\MULTI-PLAYER DISTRIBUTED PROGRAMMING(C++)\CA3\MULTIPLAYERCA3\ROBOCAT\SRC\DELIVERYNOTIFICATIONMANAGER.CPP
/c /I"C:\COLLEGE\4TH YEAR\MULTI-PLAYER DISTRIBUTED PROGRAMMING(C++)\SFML-2.3.2-WINDOWS-VC14-32-BIT\SFML-2.3.2\INCLUDE" /I"C:\USERS\BRANDON\DESKTOP\LAST\NEW FOLDER\SFML-2.3.2\INCLUDE" /I..\SDL\INCLUDE /IINC /I..\ /I"C:\SFML-2.3.2\INCLUDE" /ZI /nologo /W4 /WX- /diagnostics:classic /Od /Oi /Oy- /D WIN32 /D _DEBUG /D DEBUG /D PROFILE /D _WINDOWS /D _WIN32_WINNT=0x0600 /D _MBCS /Gm- /EHsc /RTC1 /MDd /GS /arch:SSE2 /fp:fast /Zc:wchar_t /Zc:forScope /Zc:inline /openmp- /Yu"RoboCatPCH.h" /Fp"DEBUG\ROBOCAT.PCH" /Fo"DEBUG\\" /Fd"DEBUG\ROBOCAT.PDB" /Gd /TP /analyze-   C:\COLLEGE\4TH YEAR\MULTI-PLAYER DISTRIBUTED PROGRAMMING(C++)\CA3\MULTIPLAYERCA3\ROBOCAT\SRC\DELIVERYNOTIFICATIONMANAGER.CPP
^C:\COLLEGE\4TH YEAR\MULTI-PLAYER DISTRIBUTED PROGRAMMING(C++)\CA3\MULTIPLAYERCA3\ROBOCAT\SRC\ENGINE.CPP
/c /I"C:\COLLEGE\4TH YEAR\MULTI-PLAYER DISTRIBUTED PROGRAMMING(C++)\SFML-2.3.2-WINDOWS-VC14-32-BIT\SFML-2.3.2\INCLUDE" /I"C:\USERS\BRANDON\DESKTOP\LAST\NEW FOLDER\SFML-2.3.2\INCLUDE" /I..\SDL\INCLUDE /IINC /I..\ /I"C:\SFML-2.3.2\INCLUDE" /ZI /nologo /W4 /WX- /diagnostics:classic /Od /Oi /Oy- /D WIN32 /D _DEBUG /D DEBUG /D PROFILE /D _WINDOWS /D _WIN32_WINNT=0x0600 /D _MBCS /Gm- /EHsc /RTC1 /MDd /GS /arch:SSE2 /fp:fast /Zc:wchar_t /Zc:forScope /Zc:inline /openmp- /Yu"RoboCatPCH.h" /Fp"DEBUG\ROBOCAT.PCH" /Fo"DEBUG\\" /Fd"DEBUG\ROBOCAT.PDB" /Gd /TP /analyze-   C:\COLLEGE\4TH YEAR\MULTI-PLAYER DISTRIBUTED PROGRAMMING(C++)\CA3\MULTIPLAYERCA3\ROBOCAT\SRC\ENGINE.CPP
^C:\COLLEGE\4TH YEAR\MULTI-PLAYER DISTRIBUTED PROGRAMMING(C++)\CA3\MULTIPLAYERCA3\ROBOCAT\SRC\GAMEOBJECTREGISTRY.CPP
/c /I"C:\COLLEGE\4TH YEAR\MULTI-PLAYER DISTRIBUTED PROGRAMMING(C++)\SFML-2.3.2-WINDOWS-VC14-32-BIT\SFML-2.3.2\INCLUDE" /I"C:\USERS\BRANDON\DESKTOP\LAST\NEW FOLDER\SFML-2.3.2\INCLUDE" /I..\SDL\INCLUDE /IINC /I..\ /I"C:\SFML-2.3.2\INCLUDE" /ZI /nologo /W4 /WX- /diagnostics:classic /Od /Oi /Oy- /D WIN32 /D _DEBUG /D DEBUG /D PROFILE /D _WINDOWS /D _WIN32_WINNT=0x0600 /D _MBCS /Gm- /EHsc /RTC1 /MDd /GS /arch:SSE2 /fp:fast /Zc:wchar_t /Zc:forScope /Zc:inline /openmp- /Yu"RoboCatPCH.h" /Fp"DEBUG\ROBOCAT.PCH" /Fo"DEBUG\\" /Fd"DEBUG\ROBOCAT.PDB" /Gd /TP /analyze-   C:\COLLEGE\4TH YEAR\MULTI-PLAYER DISTRIBUTED PROGRAMMING(C++)\CA3\MULTIPLAYERCA3\ROBOCAT\SRC\GAMEOBJECTREGISTRY.CPP
^C:\COLLEGE\4TH YEAR\MULTI-PLAYER DISTRIBUTED PROGRAMMING(C++)\CA3\MULTIPLAYERCA3\ROBOCAT\SRC\INFLIGHTPACKET.CPP
/c /I"C:\COLLEGE\4TH YEAR\MULTI-PLAYER DISTRIBUTED PROGRAMMING(C++)\SFML-2.3.2-WINDOWS-VC14-32-BIT\SFML-2.3.2\INCLUDE" /I"C:\USERS\BRANDON\DESKTOP\LAST\NEW FOLDER\SFML-2.3.2\INCLUDE" /I..\SDL\INCLUDE /IINC /I..\ /I"C:\SFML-2.3.2\INCLUDE" /ZI /nologo /W4 /WX- /diagnostics:classic /Od /Oi /Oy- /D WIN32 /D _DEBUG /D DEBUG /D PROFILE /D _WINDOWS /D _WIN32_WINNT=0x0600 /D _MBCS /Gm- /EHsc /RTC1 /MDd /GS /arch:SSE2 /fp:fast /Zc:wchar_t /Zc:forScope /Zc:inline /openmp- /Yu"RoboCatPCH.h" /Fp"DEBUG\ROBOCAT.PCH" /Fo"DEBUG\\" /Fd"DEBUG\ROBOCAT.PDB" /Gd /TP /analyze-   C:\COLLEGE\4TH YEAR\MULTI-PLAYER DISTRIBUTED PROGRAMMING(C++)\CA3\MULTIPLAYERCA3\ROBOCAT\SRC\INFLIGHTPACKET.CPP
^C:\COLLEGE\4TH YEAR\MULTI-PLAYER DISTRIBUTED PROGRAMMING(C++)\CA3\MULTIPLAYERCA3\ROBOCAT\SRC\INPUTSTATE.CPP
/c /I"C:\COLLEGE\4TH YEAR\MULTI-PLAYER DISTRIBUTED PROGRAMMING(C++)\SFML-2.3.2-WINDOWS-VC14-32-BIT\SFML-2.3.2\INCLUDE" /I"C:\USERS\BRANDON\DESKTOP\LAST\NEW FOLDER\SFML-2.3.2\INCLUDE" /I..\SDL\INCLUDE /IINC /I..\ /I"C:\SFML-2.3.2\INCLUDE" /ZI /nologo /W4 /WX- /diagnostics:classic /Od /Oi /Oy- /D WIN32 /D _DEBUG /D DEBUG /D PROFILE /D _WINDOWS /D _WIN32_WINNT=0x0600 /D _MBCS /Gm- /EHsc /RTC1 /MDd /GS /arch:SSE2 /fp:fast /Zc:wchar_t /Zc:forScope /Zc:inline /openmp- /Yu"RoboCatPCH.h" /Fp"DEBUG\ROBOCAT.PCH" /Fo"DEBUG\\" /Fd"DEBUG\ROBOCAT.PDB" /Gd /TP /analyze-   C:\COLLEGE\4TH YEAR\MULTI-PLAYER DISTRIBUTED PROGRAMMING(C++)\CA3\MULTIPLAYERCA3\ROBOCAT\SRC\INPUTSTATE.CPP
^C:\COLLEGE\4TH YEAR\MULTI-PLAYER DISTRIBUTED PROGRAMMING(C++)\CA3\MULTIPLAYERCA3\ROBOCAT\SRC\MEMORYBITSTREAM.CPP
/c /I"C:\COLLEGE\4TH YEAR\MULTI-PLAYER DISTRIBUTED PROGRAMMING(C++)\SFML-2.3.2-WINDOWS-VC14-32-BIT\SFML-2.3.2\INCLUDE" /I"C:\USERS\BRANDON\DESKTOP\LAST\NEW FOLDER\SFML-2.3.2\INCLUDE" /I..\SDL\INCLUDE /IINC /I..\ /I"C:\SFML-2.3.2\INCLUDE" /ZI /nologo /W4 /WX- /diagnostics:classic /Od /Oi /Oy- /D WIN32 /D _DEBUG /D DEBUG /D PROFILE /D _WINDOWS /D _WIN32_WINNT=0x0600 /D _MBCS /Gm- /EHsc /RTC1 /MDd /GS /arch:SSE2 /fp:fast /Zc:wchar_t /Zc:forScope /Zc:inline /openmp- /Yu"RoboCatPCH.h" /Fp"DEBUG\ROBOCAT.PCH" /Fo"DEBUG\\" /Fd"DEBUG\ROBOCAT.PDB" /Gd /TP /analyze-   C:\COLLEGE\4TH YEAR\MULTI-PLAYER DISTRIBUTED PROGRAMMING(C++)\CA3\MULTIPLAYERCA3\ROBOCAT\SRC\MEMORYBITSTREAM.CPP
^C:\COLLEGE\4TH YEAR\MULTI-PLAYER DISTRIBUTED PROGRAMMING(C++)\CA3\MULTIPLAYERCA3\ROBOCAT\SRC\MOVE.CPP
/c /I"C:\COLLEGE\4TH YEAR\MULTI-PLAYER DISTRIBUTED PROGRAMMING(C++)\SFML-2.3.2-WINDOWS-VC14-32-BIT\SFML-2.3.2\INCLUDE" /I"C:\USERS\BRANDON\DESKTOP\LAST\NEW FOLDER\SFML-2.3.2\INCLUDE" /I..\SDL\INCLUDE /IINC /I..\ /I"C:\SFML-2.3.2\INCLUDE" /ZI /nologo /W4 /WX- /diagnostics:classic /Od /Oi /Oy- /D WIN32 /D _DEBUG /D DEBUG /D PROFILE /D _WINDOWS /D _WIN32_WINNT=0x0600 /D _MBCS /Gm- /EHsc /RTC1 /MDd /GS /arch:SSE2 /fp:fast /Zc:wchar_t /Zc:forScope /Zc:inline /openmp- /Yu"RoboCatPCH.h" /Fp"DEBUG\ROBOCAT.PCH" /Fo"DEBUG\\" /Fd"DEBUG\ROBOCAT.PDB" /Gd /TP /analyze-   C:\COLLEGE\4TH YEAR\MULTI-PLAYER DISTRIBUTED PROGRAMMING(C++)\CA3\MULTIPLAYERCA3\ROBOCAT\SRC\MOVE.CPP
^C:\COLLEGE\4TH YEAR\MULTI-PLAYER DISTRIBUTED PROGRAMMING(C++)\CA3\MULTIPLAYERCA3\ROBOCAT\SRC\MOVELIST.CPP
/c /I"C:\COLLEGE\4TH YEAR\MULTI-PLAYER DISTRIBUTED PROGRAMMING(C++)\SFML-2.3.2-WINDOWS-VC14-32-BIT\SFML-2.3.2\INCLUDE" /I"C:\USERS\BRANDON\DESKTOP\LAST\NEW FOLDER\SFML-2.3.2\INCLUDE" /I..\SDL\INCLUDE /IINC /I..\ /I"C:\SFML-2.3.2\INCLUDE" /ZI /nologo /W4 /WX- /diagnostics:classic /Od /Oi /Oy- /D WIN32 /D _DEBUG /D DEBUG /D PROFILE /D _WINDOWS /D _WIN32_WINNT=0x0600 /D _MBCS /Gm- /EHsc /RTC1 /MDd /GS /arch:SSE2 /fp:fast /Zc:wchar_t /Zc:forScope /Zc:inline /openmp- /Yu"RoboCatPCH.h" /Fp"DEBUG\ROBOCAT.PCH" /Fo"DEBUG\\" /Fd"DEBUG\ROBOCAT.PDB" /Gd /TP /analyze-   C:\COLLEGE\4TH YEAR\MULTI-PLAYER DISTRIBUTED PROGRAMMING(C++)\CA3\MULTIPLAYERCA3\ROBOCAT\SRC\MOVELIST.CPP
^C:\COLLEGE\4TH YEAR\MULTI-PLAYER DISTRIBUTED PROGRAMMING(C++)\CA3\MULTIPLAYERCA3\ROBOCAT\SRC\NETWORKMANAGER.CPP
/c /I"C:\COLLEGE\4TH YEAR\MULTI-PLAYER DISTRIBUTED PROGRAMMING(C++)\SFML-2.3.2-WINDOWS-VC14-32-BIT\SFML-2.3.2\INCLUDE" /I"C:\USERS\BRANDON\DESKTOP\LAST\NEW FOLDER\SFML-2.3.2\INCLUDE" /I..\SDL\INCLUDE /IINC /I..\ /I"C:\SFML-2.3.2\INCLUDE" /ZI /nologo /W4 /WX- /diagnostics:classic /Od /Oi /Oy- /D WIN32 /D _DEBUG /D DEBUG /D PROFILE /D _WINDOWS /D _WIN32_WINNT=0x0600 /D _MBCS /Gm- /EHsc /RTC1 /MDd /GS /arch:SSE2 /fp:fast /Zc:wchar_t /Zc:forScope /Zc:inline /openmp- /Yu"RoboCatPCH.h" /Fp"DEBUG\ROBOCAT.PCH" /Fo"DEBUG\\" /Fd"DEBUG\ROBOCAT.PDB" /Gd /TP /analyze-   C:\COLLEGE\4TH YEAR\MULTI-PLAYER DISTRIBUTED PROGRAMMING(C++)\CA3\MULTIPLAYERCA3\ROBOCAT\SRC\NETWORKMANAGER.CPP
^C:\COLLEGE\4TH YEAR\MULTI-PLAYER DISTRIBUTED PROGRAMMING(C++)\CA3\MULTIPLAYERCA3\ROBOCAT\SRC\ROBOMATH.CPP
/c /I"C:\COLLEGE\4TH YEAR\MULTI-PLAYER DISTRIBUTED PROGRAMMING(C++)\SFML-2.3.2-WINDOWS-VC14-32-BIT\SFML-2.3.2\INCLUDE" /I"C:\USERS\BRANDON\DESKTOP\LAST\NEW FOLDER\SFML-2.3.2\INCLUDE" /I..\SDL\INCLUDE /IINC /I..\ /I"C:\SFML-2.3.2\INCLUDE" /ZI /nologo /W4 /WX- /diagnostics:classic /Od /Oi /Oy- /D WIN32 /D _DEBUG /D DEBUG /D PROFILE /D _WINDOWS /D _WIN32_WINNT=0x0600 /D _MBCS /Gm- /EHsc /RTC1 /MDd /GS /arch:SSE2 /fp:fast /Zc:wchar_t /Zc:forScope /Zc:inline /openmp- /Yu"RoboCatPCH.h" /Fp"DEBUG\ROBOCAT.PCH" /Fo"DEBUG\\" /Fd"DEBUG\ROBOCAT.PDB" /Gd /TP /analyze-   C:\COLLEGE\4TH YEAR\MULTI-PLAYER DISTRIBUTED PROGRAMMING(C++)\CA3\MULTIPLAYERCA3\ROBOCAT\SRC\ROBOMATH.CPP
^C:\COLLEGE\4TH YEAR\MULTI-PLAYER DISTRIBUTED PROGRAMMING(C++)\CA3\MULTIPLAYERCA3\ROBOCAT\SRC\SCOREBOARDMANAGER.CPP
/c /I"C:\COLLEGE\4TH YEAR\MULTI-PLAYER DISTRIBUTED PROGRAMMING(C++)\SFML-2.3.2-WINDOWS-VC14-32-BIT\SFML-2.3.2\INCLUDE" /I"C:\USERS\BRANDON\DESKTOP\LAST\NEW FOLDER\SFML-2.3.2\INCLUDE" /I..\SDL\INCLUDE /IINC /I..\ /I"C:\SFML-2.3.2\INCLUDE" /ZI /nologo /W4 /WX- /diagnostics:classic /Od /Oi /Oy- /D WIN32 /D _DEBUG /D DEBUG /D PROFILE /D _WINDOWS /D _WIN32_WINNT=0x0600 /D _MBCS /Gm- /EHsc /RTC1 /MDd /GS /arch:SSE2 /fp:fast /Zc:wchar_t /Zc:forScope /Zc:inline /openmp- /Yu"RoboCatPCH.h" /Fp"DEBUG\ROBOCAT.PCH" /Fo"DEBUG\\" /Fd"DEBUG\ROBOCAT.PDB" /Gd /TP /analyze-   C:\COLLEGE\4TH YEAR\MULTI-PLAYER DISTRIBUTED PROGRAMMING(C++)\CA3\MULTIPLAYERCA3\ROBOCAT\SRC\SCOREBOARDMANAGER.CPP
^C:\COLLEGE\4TH YEAR\MULTI-PLAYER DISTRIBUTED PROGRAMMING(C++)\CA3\MULTIPLAYERCA3\ROBOCAT\SRC\ROBOCAT.CPP
/c /I"C:\COLLEGE\4TH YEAR\MULTI-PLAYER DISTRIBUTED PROGRAMMING(C++)\SFML-2.3.2-WINDOWS-VC14-32-BIT\SFML-2.3.2\INCLUDE" /I"C:\USERS\BRANDON\DESKTOP\LAST\NEW FOLDER\SFML-2.3.2\INCLUDE" /I..\SDL\INCLUDE /IINC /I..\ /I"C:\SFML-2.3.2\INCLUDE" /ZI /nologo /W4 /WX- /diagnostics:classic /Od /Oi /Oy- /D WIN32 /D _DEBUG /D DEBUG /D PROFILE /D _WINDOWS /D _WIN32_WINNT=0x0600 /D _MBCS /Gm- /EHsc /RTC1 /MDd /GS /arch:SSE2 /fp:fast /Zc:wchar_t /Zc:forScope /Zc:inline /openmp- /Yu"RoboCatPCH.h" /Fp"DEBUG\ROBOCAT.PCH" /Fo"DEBUG\\" /Fd"DEBUG\ROBOCAT.PDB" /Gd /TP /analyze-   C:\COLLEGE\4TH YEAR\MULTI-PLAYER DISTRIBUTED PROGRAMMING(C++)\CA3\MULTIPLAYERCA3\ROBOCAT\SRC\ROBOCAT.CPP
^C:\COLLEGE\4TH YEAR\MULTI-PLAYER DISTRIBUTED PROGRAMMING(C++)\CA3\MULTIPLAYERCA3\ROBOCAT\SRC\SOCKETADDRESS.CPP
/c /I"C:\COLLEGE\4TH YEAR\MULTI-PLAYER DISTRIBUTED PROGRAMMING(C++)\SFML-2.3.2-WINDOWS-VC14-32-BIT\SFML-2.3.2\INCLUDE" /I"C:\USERS\BRANDON\DESKTOP\LAST\NEW FOLDER\SFML-2.3.2\INCLUDE" /I..\SDL\INCLUDE /IINC /I..\ /I"C:\SFML-2.3.2\INCLUDE" /ZI /nologo /W4 /WX- /diagnostics:classic /Od /Oi /Oy- /D WIN32 /D _DEBUG /D DEBUG /D PROFILE /D _WINDOWS /D _WIN32_WINNT=0x0600 /D _MBCS /Gm- /EHsc /RTC1 /MDd /GS /arch:SSE2 /fp:fast /Zc:wchar_t /Zc:forScope /Zc:inline /openmp- /Yu"RoboCatPCH.h" /Fp"DEBUG\ROBOCAT.PCH" /Fo"DEBUG\\" /Fd"DEBUG\ROBOCAT.PDB" /Gd /TP /analyze-   C:\COLLEGE\4TH YEAR\MULTI-PLAYER DISTRIBUTED PROGRAMMING(C++)\CA3\MULTIPLAYERCA3\ROBOCAT\SRC\SOCKETADDRESS.CPP
^C:\COLLEGE\4TH YEAR\MULTI-PLAYER DISTRIBUTED PROGRAMMING(C++)\CA3\MULTIPLAYERCA3\ROBOCAT\SRC\SOCKETADDRESSFACTORY.CPP
/c /I"C:\COLLEGE\4TH YEAR\MULTI-PLAYER DISTRIBUTED PROGRAMMING(C++)\SFML-2.3.2-WINDOWS-VC14-32-BIT\SFML-2.3.2\INCLUDE" /I"C:\USERS\BRANDON\DESKTOP\LAST\NEW FOLDER\SFML-2.3.2\INCLUDE" /I..\SDL\INCLUDE /IINC /I..\ /I"C:\SFML-2.3.2\INCLUDE" /ZI /nologo /W4 /WX- /diagnostics:classic /Od /Oi /Oy- /D WIN32 /D _DEBUG /D DEBUG /D PROFILE /D _WINDOWS /D _WIN32_WINNT=0x0600 /D _MBCS /Gm- /EHsc /RTC1 /MDd /GS /arch:SSE2 /fp:fast /Zc:wchar_t /Zc:forScope /Zc:inline /openmp- /Yu"RoboCatPCH.h" /Fp"DEBUG\ROBOCAT.PCH" /Fo"DEBUG\\" /Fd"DEBUG\ROBOCAT.PDB" /Gd /TP /analyze-   C:\COLLEGE\4TH YEAR\MULTI-PLAYER DISTRIBUTED PROGRAMMING(C++)\CA3\MULTIPLAYERCA3\ROBOCAT\SRC\SOCKETADDRESSFACTORY.CPP
^C:\COLLEGE\4TH YEAR\MULTI-PLAYER DISTRIBUTED PROGRAMMING(C++)\CA3\MULTIPLAYERCA3\ROBOCAT\SRC\SOCKETUTIL.CPP
/c /I"C:\COLLEGE\4TH YEAR\MULTI-PLAYER DISTRIBUTED PROGRAMMING(C++)\SFML-2.3.2-WINDOWS-VC14-32-BIT\SFML-2.3.2\INCLUDE" /I"C:\USERS\BRANDON\DESKTOP\LAST\NEW FOLDER\SFML-2.3.2\INCLUDE" /I..\SDL\INCLUDE /IINC /I..\ /I"C:\SFML-2.3.2\INCLUDE" /ZI /nologo /W4 /WX- /diagnostics:classic /Od /Oi /Oy- /D WIN32 /D _DEBUG /D DEBUG /D PROFILE /D _WINDOWS /D _WIN32_WINNT=0x0600 /D _MBCS /Gm- /EHsc /RTC1 /MDd /GS /arch:SSE2 /fp:fast /Zc:wchar_t /Zc:forScope /Zc:inline /openmp- /Yu"RoboCatPCH.h" /Fp"DEBUG\ROBOCAT.PCH" /Fo"DEBUG\\" /Fd"DEBUG\ROBOCAT.PDB" /Gd /TP /analyze-   C:\COLLEGE\4TH YEAR\MULTI-PLAYER DISTRIBUTED PROGRAMMING(C++)\CA3\MULTIPLAYERCA3\ROBOCAT\SRC\SOCKETUTIL.CPP
^C:\COLLEGE\4TH YEAR\MULTI-PLAYER DISTRIBUTED PROGRAMMING(C++)\CA3\MULTIPLAYERCA3\ROBOCAT\SRC\STRINGUTILS.CPP
/c /I"C:\COLLEGE\4TH YEAR\MULTI-PLAYER DISTRIBUTED PROGRAMMING(C++)\SFML-2.3.2-WINDOWS-VC14-32-BIT\SFML-2.3.2\INCLUDE" /I"C:\USERS\BRANDON\DESKTOP\LAST\NEW FOLDER\SFML-2.3.2\INCLUDE" /I..\SDL\INCLUDE /IINC /I..\ /I"C:\SFML-2.3.2\INCLUDE" /ZI /nologo /W4 /WX- /diagnostics:classic /Od /Oi /Oy- /D WIN32 /D _DEBUG /D DEBUG /D PROFILE /D _WINDOWS /D _WIN32_WINNT=0x0600 /D _MBCS /Gm- /EHsc /RTC1 /MDd /GS /arch:SSE2 /fp:fast /Zc:wchar_t /Zc:forScope /Zc:inline /openmp- /Yu"RoboCatPCH.h" /Fp"DEBUG\ROBOCAT.PCH" /Fo"DEBUG\\" /Fd"DEBUG\ROBOCAT.PDB" /Gd /TP /analyze-   C:\COLLEGE\4TH YEAR\MULTI-PLAYER DISTRIBUTED PROGRAMMING(C++)\CA3\MULTIPLAYERCA3\ROBOCAT\SRC\STRINGUTILS.CPP
^C:\COLLEGE\4TH YEAR\MULTI-PLAYER DISTRIBUTED PROGRAMMING(C++)\CA3\MULTIPLAYERCA3\ROBOCAT\SRC\TCPSOCKET.CPP
/c /I"C:\COLLEGE\4TH YEAR\MULTI-PLAYER DISTRIBUTED PROGRAMMING(C++)\SFML-2.3.2-WINDOWS-VC14-32-BIT\SFML-2.3.2\INCLUDE" /I"C:\USERS\BRANDON\DESKTOP\LAST\NEW FOLDER\SFML-2.3.2\INCLUDE" /I..\SDL\INCLUDE /IINC /I..\ /I"C:\SFML-2.3.2\INCLUDE" /ZI /nologo /W4 /WX- /diagnostics:classic /Od /Oi /Oy- /D WIN32 /D _DEBUG /D DEBUG /D PROFILE /D _WINDOWS /D _WIN32_WINNT=0x0600 /D _MBCS /Gm- /EHsc /RTC1 /MDd /GS /arch:SSE2 /fp:fast /Zc:wchar_t /Zc:forScope /Zc:inline /openmp- /Yu"RoboCatPCH.h" /Fp"DEBUG\ROBOCAT.PCH" /Fo"DEBUG\\" /Fd"DEBUG\ROBOCAT.PDB" /Gd /TP /analyze-   C:\COLLEGE\4TH YEAR\MULTI-PLAYER DISTRIBUTED PROGRAMMING(C++)\CA3\MULTIPLAYERCA3\ROBOCAT\SRC\TCPSOCKET.CPP
^C:\COLLEGE\4TH YEAR\MULTI-PLAYER DISTRIBUTED PROGRAMMING(C++)\CA3\MULTIPLAYERCA3\ROBOCAT\SRC\TIMING.CPP
/c /I"C:\COLLEGE\4TH YEAR\MULTI-PLAYER DISTRIBUTED PROGRAMMING(C++)\SFML-2.3.2-WINDOWS-VC14-32-BIT\SFML-2.3.2\INCLUDE" /I"C:\USERS\BRANDON\DESKTOP\LAST\NEW FOLDER\SFML-2.3.2\INCLUDE" /I..\SDL\INCLUDE /IINC /I..\ /I"C:\SFML-2.3.2\INCLUDE" /ZI /nologo /W4 /WX- /diagnostics:classic /Od /Oi /Oy- /D WIN32 /D _DEBUG /D DEBUG /D PROFILE /D _WINDOWS /D _WIN32_WINNT=0x0600 /D _MBCS /Gm- /EHsc /RTC1 /MDd /GS /arch:SSE2 /fp:fast /Zc:wchar_t /Zc:forScope /Zc:inline /openmp- /Yu"RoboCatPCH.h" /Fp"DEBUG\ROBOCAT.PCH" /Fo"DEBUG\\" /Fd"DEBUG\ROBOCAT.PDB" /Gd /TP /analyze-   C:\COLLEGE\4TH YEAR\MULTI-PLAYER DISTRIBUTED PROGRAMMING(C++)\CA3\MULTIPLAYERCA3\ROBOCAT\SRC\TIMING.CPP
^C:\COLLEGE\4TH YEAR\MULTI-PLAYER DISTRIBUTED PROGRAMMING(C++)\CA3\MULTIPLAYERCA3\ROBOCAT\SRC\GAMEOBJECT.CPP
/c /I"C:\COLLEGE\4TH YEAR\MULTI-PLAYER DISTRIBUTED PROGRAMMING(C++)\SFML-2.3.2-WINDOWS-VC14-32-BIT\SFML-2.3.2\INCLUDE" /I"C:\USERS\BRANDON\DESKTOP\LAST\NEW FOLDER\SFML-2.3.2\INCLUDE" /I..\SDL\INCLUDE /IINC /I..\ /I"C:\SFML-2.3.2\INCLUDE" /ZI /nologo /W4 /WX- /diagnostics:classic /Od /Oi /Oy- /D WIN32 /D _DEBUG /D DEBUG /D PROFILE /D _WINDOWS /D _WIN32_WINNT=0x0600 /D _MBCS /Gm- /EHsc /RTC1 /MDd /GS /arch:SSE2 /fp:fast /Zc:wchar_t /Zc:forScope /Zc:inline /openmp- /Yu"RoboCatPCH.h" /Fp"DEBUG\ROBOCAT.PCH" /Fo"DEBUG\\" /Fd"DEBUG\ROBOCAT.PDB" /Gd /TP /analyze-   C:\COLLEGE\4TH YEAR\MULTI-PLAYER DISTRIBUTED PROGRAMMING(C++)\CA3\MULTIPLAYERCA3\ROBOCAT\SRC\GAMEOBJECT.CPP
^C:\COLLEGE\4TH YEAR\MULTI-PLAYER DISTRIBUTED PROGRAMMING(C++)\CA3\MULTIPLAYERCA3\ROBOCAT\SRC\MOUSE.CPP
/c /I"C:\COLLEGE\4TH YEAR\MULTI-PLAYER DISTRIBUTED PROGRAMMING(C++)\SFML-2.3.2-WINDOWS-VC14-32-BIT\SFML-2.3.2\INCLUDE" /I"C:\USERS\BRANDON\DESKTOP\LAST\NEW FOLDER\SFML-2.3.2\INCLUDE" /I..\SDL\INCLUDE /IINC /I..\ /I"C:\SFML-2.3.2\INCLUDE" /ZI /nologo /W4 /WX- /diagnostics:classic /Od /Oi /Oy- /D WIN32 /D _DEBUG /D DEBUG /D PROFILE /D _WINDOWS /D _WIN32_WINNT=0x0600 /D _MBCS /Gm- /EHsc /RTC1 /MDd /GS /arch:SSE2 /fp:fast /Zc:wchar_t /Zc:forScope /Zc:inline /openmp- /Yu"RoboCatPCH.h" /Fp"DEBUG\ROBOCAT.PCH" /Fo"DEBUG\\" /Fd"DEBUG\ROBOCAT.PDB" /Gd /TP /analyze-   C:\COLLEGE\4TH YEAR\MULTI-PLAYER DISTRIBUTED PROGRAMMING(C++)\CA3\MULTIPLAYERCA3\ROBOCAT\SRC\MOUSE.CPP
^C:\COLLEGE\4TH YEAR\MULTI-PLAYER DISTRIBUTED PROGRAMMING(C++)\CA3\MULTIPLAYERCA3\ROBOCAT\SRC\UDPSOCKET.CPP
/c /I"C:\COLLEGE\4TH YEAR\MULTI-PLAYER DISTRIBUTED PROGRAMMING(C++)\SFML-2.3.2-WINDOWS-VC14-32-BIT\SFML-2.3.2\INCLUDE" /I"C:\USERS\BRANDON\DESKTOP\LAST\NEW FOLDER\SFML-2.3.2\INCLUDE" /I..\SDL\INCLUDE /IINC /I..\ /I"C:\SFML-2.3.2\INCLUDE" /ZI /nologo /W4 /WX- /diagnostics:classic /Od /Oi /Oy- /D WIN32 /D _DEBUG /D DEBUG /D PROFILE /D _WINDOWS /D _WIN32_WINNT=0x0600 /D _MBCS /Gm- /EHsc /RTC1 /MDd /GS /arch:SSE2 /fp:fast /Zc:wchar_t /Zc:forScope /Zc:inline /openmp- /Yu"RoboCatPCH.h" /Fp"DEBUG\ROBOCAT.PCH" /Fo"DEBUG\\" /Fd"DEBUG\ROBOCAT.PDB" /Gd /TP /analyze-   C:\COLLEGE\4TH YEAR\MULTI-PLAYER DISTRIBUTED PROGRAMMING(C++)\CA3\MULTIPLAYERCA3\ROBOCAT\SRC\UDPSOCKET.CPP
^C:\COLLEGE\4TH YEAR\MULTI-PLAYER DISTRIBUTED PROGRAMMING(C++)\CA3\MULTIPLAYERCA3\ROBOCAT\SRC\WORLD.CPP
/c /I"C:\COLLEGE\4TH YEAR\MULTI-PLAYER DISTRIBUTED PROGRAMMING(C++)\SFML-2.3.2-WINDOWS-VC14-32-BIT\SFML-2.3.2\INCLUDE" /I"C:\USERS\BRANDON\DESKTOP\LAST\NEW FOLDER\SFML-2.3.2\INCLUDE" /I..\SDL\INCLUDE /IINC /I..\ /I"C:\SFML-2.3.2\INCLUDE" /ZI /nologo /W4 /WX- /diagnostics:classic /Od /Oi /Oy- /D WIN32 /D _DEBUG /D DEBUG /D PROFILE /D _WINDOWS /D _WIN32_WINNT=0x0600 /D _MBCS /Gm- /EHsc /RTC1 /MDd /GS /arch:SSE2 /fp:fast /Zc:wchar_t /Zc:forScope /Zc:inline /openmp- /Yu"RoboCatPCH.h" /Fp"DEBUG\ROBOCAT.PCH" /Fo"DEBUG\\" /Fd"DEBUG\ROBOCAT.PDB" /Gd /TP /analyze-   C:\COLLEGE\4TH YEAR\MULTI-PLAYER DISTRIBUTED PROGRAMMING(C++)\CA3\MULTIPLAYERCA3\ROBOCAT\SRC\WORLD.CPP
